starting vacuum...end.
transaction type: <builtin: TPC-B (sort of)>
scaling factor: 300
query mode: prepared
number of clients: 128
number of threads: 8
duration: 300 s
number of transactions actually processed: 10301474
latency average: 3.728 ms
tps = 34337.837360 (including connections establishing)
tps = 34338.962497 (excluding connections establishing)
