starting vacuum...end.
transaction type: <builtin: TPC-B (sort of)>
scaling factor: 300
query mode: prepared
number of clients: 32
number of threads: 8
duration: 300 s
number of transactions actually processed: 8838004
latency average: 1.086 ms
tps = 29459.896378 (including connections establishing)
tps = 29460.239128 (excluding connections establishing)
