starting vacuum...end.
transaction type: <builtin: TPC-B (sort of)>
scaling factor: 300
query mode: prepared
number of clients: 128
number of threads: 8
duration: 300 s
number of transactions actually processed: 10222340
latency average: 3.756 ms
tps = 34073.879119 (including connections establishing)
tps = 34074.778348 (excluding connections establishing)
