starting vacuum...end.
transaction type: <builtin: TPC-B (sort of)>
scaling factor: 300
query mode: prepared
number of clients: 64
number of threads: 8
duration: 300 s
number of transactions actually processed: 9479997
latency average: 2.025 ms
tps = 31597.178062 (including connections establishing)
tps = 31597.709366 (excluding connections establishing)
