starting vacuum...end.
transaction type: <builtin: TPC-B (sort of)>
scaling factor: 300
query mode: prepared
number of clients: 192
number of threads: 8
duration: 300 s
number of transactions actually processed: 3216416
latency average: 17.908 ms
tps = 10713.625502 (including connections establishing)
tps = 10713.764265 (excluding connections establishing)
