starting vacuum...end.
transaction type: <builtin: TPC-B (sort of)>
scaling factor: 300
query mode: prepared
number of clients: 192
number of threads: 8
duration: 300 s
number of transactions actually processed: 10780511
latency average: 5.343 ms
tps = 35934.431052 (including connections establishing)
tps = 35935.498585 (excluding connections establishing)
