starting vacuum...end.
transaction type: <builtin: TPC-B (sort of)>
scaling factor: 300
query mode: prepared
number of clients: 128
number of threads: 8
duration: 300 s
number of transactions actually processed: 10112596
latency average: 3.797 ms
tps = 33701.409440 (including connections establishing)
tps = 33702.237587 (excluding connections establishing)
