starting vacuum...end.
transaction type: <builtin: TPC-B (sort of)>
scaling factor: 300
query mode: prepared
number of clients: 128
number of threads: 8
duration: 300 s
number of transactions actually processed: 10357937
latency average: 3.707 ms
tps = 34525.818284 (including connections establishing)
tps = 34527.101240 (excluding connections establishing)
